{
	"info": {
		"_postman_id": "76ab8eb7-4502-4f64-8ab3-15038dbfa7cf",
		"name": "bachelor",
		"schema": "https://schema.getpostman.com/json/collection/v2.1.0/collection.json"
	},
	"item": [
		{
			"name": "forums",
			"request": {
				"method": "GET",
				"header": [],
				"url": {
					"raw": "http://localhost:5052/forums/9",
					"protocol": "http",
					"host": [
						"localhost"
					],
					"port": "5052",
					"path": [
						"forums",
						"9"
					]
				}
			},
			"response": []
		},
		{
			"name": "forums",
			"request": {
				"method": "POST",
				"header": [
					{
						"key": "Content-Type",
						"value": "application/json",
						"type": "text"
					}
				],
				"body": {
					"mode": "raw",
					"raw": "{\r\n    \"thesisId\":12,\r\n    \"name\": \"Lucrare de Licenta\",\r\n    \"text\" : \"lorem\"\r\n}"
				},
				"url": {
					"raw": "http://localhost:5052/forums",
					"protocol": "http",
					"host": [
						"localhost"
					],
					"port": "5052",
					"path": [
						"forums"
					]
				}
			},
			"response": []
		},
		{
			"name": "comments",
			"request": {
				"method": "GET",
				"header": [],
				"url": {
					"raw": "http://localhost:5052/comments/10",
					"protocol": "http",
					"host": [
						"localhost"
					],
					"port": "5052",
					"path": [
						"comments",
						"10"
					]
				}
			},
			"response": []
		},
		{
			"name": "comments",
			"request": {
				"method": "POST",
				"header": [
					{
						"key": "Content-Type",
						"value": "application/json",
						"type": "text"
					}
				],
				"body": {
					"mode": "raw",
					"raw": "{\r\n    \"forumId\": 13,\r\n    \"text\" : \"bine\",\r\n    \"studId\" : 1\r\n}"
				},
				"url": {
					"raw": "http://localhost:5052/comments",
					"protocol": "http",
					"host": [
						"localhost"
					],
					"port": "5052",
					"path": [
						"comments"
					]
				}
			},
			"response": []
		},
		{
			"name": "theses",
			"protocolProfileBehavior": {
				"disableBodyPruning": true
			},
			"request": {
				"method": "GET",
				"header": [
					{
						"key": "Content-Type",
						"value": "application/json",
						"type": "text"
					}
				],
				"body": {
					"mode": "raw",
					"raw": "{\r\n    \"profId\":\"4\",\r\n    \"title\" : \"sugeti\"\r\n}"
				},
				"url": {
					"raw": "http://localhost:5052/theses",
					"protocol": "http",
					"host": [
						"localhost"
					],
					"port": "5052",
					"path": [
						"theses"
					]
				}
			},
			"response": []
		},
		{
			"name": "theses",
			"request": {
				"method": "POST",
				"header": [
					{
						"key": "Content-Type",
						"value": "application/json",
						"type": "text"
					}
				],
				"body": {
					"mode": "raw",
					"raw": "{\r\n    \"profId\":\"4\",\r\n    \"title\" : \"sugeti\"\r\n}"
				},
				"url": {
					"raw": "http://localhost:5052/theses",
					"protocol": "http",
					"host": [
						"localhost"
					],
					"port": "5052",
					"path": [
						"theses"
					]
				}
			},
			"response": []
		},
		{
			"name": "theses",
			"request": {
				"method": "PUT",
				"header": [
					{
						"key": "Content-Type",
						"value": "application/json",
						"type": "text"
					}
				],
				"body": {
					"mode": "raw",
					"raw": "{\r\n    \"newStudent\":\"2\"\r\n}"
				},
				"url": {
					"raw": "http://localhost:5052/theses/12",
					"protocol": "http",
					"host": [
						"localhost"
					],
					"port": "5052",
					"path": [
						"theses",
						"12"
					]
				}
			},
			"response": []
		},
		{
			"name": "students/login",
			"request": {
				"method": "POST",
				"header": [
					{
						"key": "Content-Type",
						"value": "application/json",
						"type": "text"
					}
				],
				"body": {
					"mode": "raw",
					"raw": "{\r\n    \"username\" : \"adinca\",\r\n    \"password\" : \"parola\"\r\n}"
				},
				"url": {
					"raw": "http://localhost:5052/students/login",
					"protocol": "http",
					"host": [
						"localhost"
					],
					"port": "5052",
					"path": [
						"students",
						"login"
					]
				}
			},
			"response": []
		},
		{
			"name": "professors/login",
			"request": {
				"method": "POST",
				"header": [
					{
						"key": "Content-Type",
						"value": "application/json",
						"type": "text"
					}
				],
				"body": {
					"mode": "raw",
					"raw": "{\r\n    \"username\" : \"adinca\",\r\n    \"password\" : \"kkkk\"\r\n}"
				},
				"url": {
					"raw": "http://localhost:5052/professors/login",
					"protocol": "http",
					"host": [
						"localhost"
					],
					"port": "5052",
					"path": [
						"professors",
						"login"
					]
				}
			},
			"response": []
		},
		{
			"name": "comments/_/files",
			"request": {
				"method": "POST",
				"header": [
					{
						"key": "Content-Type",
						"value": "application/json",
						"type": "text"
					}
				],
				"body": {
					"mode": "formdata",
					"formdata": [
						{
							"key": "file",
							"type": "file",
							"src": "/C:/Users/alexa/Documents/#/bachelorthesisselector/src/main/resources/application.properties",
							"disabled": true
						}
					]
				},
				"url": {
					"raw": "http://localhost:5052/comments/1/files",
					"protocol": "http",
					"host": [
						"localhost"
					],
					"port": "5052",
					"path": [
						"comments",
						"1",
						"files"
					]
				}
			},
			"response": []
		},
		{
			"name": "comments/file",
			"protocolProfileBehavior": {
				"disableBodyPruning": true
			},
			"request": {
				"method": "GET",
				"header": [
					{
						"key": "Content-Type",
						"value": "application/json",
						"type": "text",
						"disabled": true
					}
				],
				"body": {
					"mode": "raw",
					"raw": "{\r\n    \"filename\" : \"C:\\bachelor\\files\\passes.txt\"\r\n}"
				},
				"url": {
					"raw": "http://localhost:5052/comments/files",
					"protocol": "http",
					"host": [
						"localhost"
					],
					"port": "5052",
					"path": [
						"comments",
						"files"
					]
				}
			},
			"response": []
		}
	],
	"protocolProfileBehavior": {}
}